{
  "hosting": [
    {
      "target": "msadminqae",
      "public": "build",
      "ignore": ["firebase.json", "**/.*", "**/node_modules/**"]
    },
    {
      "target": "msadminlive",
      "public": "build",
      "ignore": ["firebase.json", "**/.*", "**/node_modules/**"]
    }
  ]
}
